16     5.6   8.6 
1.0    1.2   2.0    3.2      3    1   1   8  8  
1.     1.     1.     1.      1.01
1.     1.     1.     1.      0.976
1.     1.    1.      1.      1.12
1.     0.97   0.905  0.854   1.027
1.     0.995  0.992  0.98    0.953
1.     1.016  1.021  1.021   1.070
1.     1.001  1.004  1.005   1.05
1.     1.     1.     1.01    0.945
1.     1.007  1.027  1.041   1.035
1.     1.059  1.179  1.274   1.
1.     1.     1.     1.      1.
1.     1.077  1.262  1.398   0.99
1.     1.01   1.043  1.078   1.
1.     1.053  1.18   1.277   0.94
1.     1.043  1.172   1.257   0.979
1.     1.043  1.167  1.231   0.975
1.     1.02   1.071  1.094   0.951
1.     1.01   1.043  1.078   0.969
1.     0.985  0.958  0.927   0.968                   
90       10        0   82.381       22       36        0        0        0        0    35.7  19.25   29.5
0.61     0.68     0.74     0.80     0.86     0.93     0.99     1.05
10.10    11.10    12.25    13.50    14.80    16.00    17.50    18.90
0.18     0.22     0.27     0.33     0.43     0.58     0.79     1.09
22.00    24.00    26.00    28.00    30.00    32.00    34.00    36.00
3.95     4.20     4.43     4.58     4.61     4.52     4.34     3.90
0.56     0.65     0.71     0.79     0.88     0.98     1.09     1.21
17.17    18.05    18.83    19.17    19.24    18.93    17.50    15.50
0.73     0.68     0.62     0.57     0.51     0.46     0.40     0.35
3.54     3.80     4.12     4.42     4.63     4.74     4.78     4.65
10.09     9.62     8.92     8.08     7.06     6.01     4.90     3.64
2.14     1.78     1.41     1.10     0.81     0.56     0.37     0.21
9.46     7.30     5.56     4.27     3.39     2.57     1.92     1.43
13.65    11.65     9.26     6.76     4.32     2.33     1.27     0.70
1.61     1.88     2.15     2.50     2.87     3.30     3.95     4.75
0.55     0.69     0.87     1.00     1.08     1.11     1.07     1.00
0.70     0.72     0.72     0.68     0.64     0.55     0.42     0.10
0.36     0.41     0.46     0.52     0.57     0.62     0.68     0.73
1.75     1.54     1.39     1.30     1.20     1.14     0.64     0.50
0.85     1.03     1.29     1.63     2.10     2.67     3.39     4.29
80       20        0   81.582       22       36        0        0        0        0    34.0    18.35    28.25
0.60     0.67     0.73     0.79     0.85     0.92     0.98     1.04
10.15    11.20    12.44    13.60    14.95    16.20    17.60    19.00
0.18     0.23     0.30     0.40     0.52     0.65     0.79     0.99
22.00    24.00    26.00    28.00    30.00    32.00    34.00    36.00
3.84     4.06     4.25     4.37     4.37     4.27     4.00     3.44
0.62     0.69     0.77     0.85     0.95     1.05     1.17     1.30
16.59    17.46    18.08    18.31    18.03    17.11    15.40    13.30
0.60     0.54     0.48     0.43     0.37     0.32     0.26     0.21
4.39     4.78     5.15     5.43     5.55     5.57     5.35     4.85
9.25     8.58     7.70     6.70     5.68     4.59     3.52     2.54
1.94     1.55     1.18     0.85     0.56     0.34     0.15     0.05
7.94     6.28     4.86     3.80     3.05     2.33     1.77     1.16
14.43    11.71     8.83     5.97     3.32     1.33     0.74     0.30
2.17     2.50     2.92     3.42     4.00     4.75     5.60     6.75
0.95     1.24     1.51     1.75     1.84     1.83     1.74     1.52
0.70     0.72     0.72     0.68     0.64     0.55     0.42     0.10
0.51     0.58     0.65     0.73     0.81     0.90     0.97     1.06
1.79     1.60     1.39     1.31     1.21     1.14     0.59     0.49
1.35     1.61     2.04     2.61     3.30     4.15     4.95     5.90
70       30        0   83.068       20       34        0        0        0        0    32.3   17.0    27.3  
0.54     0.59     0.66     0.72     0.78     0.84     0.91     0.97
9.19    10.20    11.25    12.50    13.75    15.10    16.35    17.75
0.15     0.19     0.24     0.32     0.44     0.58     0.73     0.91
20.00    22.00    24.00    26.00    28.00    30.00    32.00    34.00
3.55     3.75     3.92     4.03     4.09     4.05     3.92     3.69
0.55     0.65     0.76     0.86     0.96     1.06     1.18     1.31
14.80    15.73    16.50    16.92    16.98    16.49    15.36    13.20
0.52     0.46     0.41     0.35     0.30     0.24     0.19     0.13
4.46     4.84     5.14     5.42     5.57     5.63     5.51     5.19
9.30     8.80     8.04     7.12     6.01     4.84     3.68     2.50
2.14     1.70     1.29     0.90     0.56     0.31     0.13     0.05
8.15     6.71     5.40     4.26     3.37     2.76     2.17     1.67
18.43    15.28    12.14     9.18     6.25     3.42     1.42     0.40
2.12     2.45     2.83     3.33     3.95     4.65     5.50     6.60
1.10     1.47     1.82     2.10     2.30     2.40     2.37     2.21
0.69     0.70     0.72     0.72     0.68     0.64     0.55     0.42
0.62     0.72     0.83     0.93     1.05     1.16     1.28     1.40
1.86     1.62     1.48     1.28     1.19     1.08     0.95     0.75
1.83     2.14     2.57     3.06     3.77     4.75     5.80     6.85
60       40        0   85.464       18       32        0        0        0        0     30.4   15.8    26.3
0.48     0.53     0.58     0.65     0.71     0.77     0.83     0.90
8.13     9.20    10.30    11.30    12.55    13.80    15.15    16.50
0.13     0.15     0.20     0.30     0.43     0.57     0.74     0.92
18.00    20.00    22.00    24.00    26.00    28.00    30.00    32.00
3.20     3.40     3.57     3.69     3.76     3.77     3.73     3.59
0.51     0.55     0.65     0.76     0.97     1.07     1.19     1.32
13.17    13.99    14.75    15.43    15.76    15.62    15.10    13.00
0.46     0.41     0.35     0.30     0.24     0.19     0.13     0.08
4.49     4.86     5.18     5.44     5.61     5.70     5.62     5.43
9.35     9.05     8.46     7.62     6.54     5.32     4.00     2.72
2.35     1.89     1.43     0.98     0.60     0.30     0.12     0.03
8.68     7.42     6.11     5.04     4.08     3.45     2.95     1.81
21.69    18.11    14.69    11.27     7.94     4.77     1.71     1.00
2.07     2.40     2.75     3.25     3.85     4.55     5.40     6.50
1.34     1.82     2.24     2.61     2.82     2.94     2.99     2.86
0.69     0.69     0.70     0.72     0.72     0.68     0.64     0.55
0.75     0.88     1.01     1.14     1.28     1.43     1.58     1.73
2.21     1.92     1.72     1.57     1.43     1.33     1.20     1.06
2.30     2.73     3.31     3.93     4.71     5.74     6.92     8.00
 85       10        5   81.582       20       34      1.5      2.5        1        0   33.6   18.3   28.0
 0.55     0.62     0.68     0.74     0.80     0.87     0.93     1.00
 9.57    10.61    11.75    12.96    14.20    15.45    16.65    18.00
 0.16     0.19     0.24     0.30     0.38     0.51     0.68     0.95
 20.00    22.00    24.00    26.00    28.00    30.00    32.00    34.00
  3.63     3.90     4.14     4.32     4.38     4.32     4.16     3.75
  0.40     0.45     0.52     0.61     0.71     0.83     0.95     1.10
 15.84    16.81    17.67    18.14    18.29    18.15    16.70    14.00
  0.72     0.67     0.61     0.56     0.50     0.45     0.39     0.33
  3.28     3.58     3.90     4.21     4.49     4.69     4.74     4.60
  9.75     9.35     8.73     7.95     6.97     5.92     4.75     3.65
  2.19     1.83     1.46     1.13     0.84     0.58     0.38     0.20
 12.32     9.75     7.58     5.83     4.74     3.86     3.36     2.89
 11.72     9.98     7.98     5.90     3.79     1.59     0.75     0.40
  2.92     3.18     3.44     3.77     4.14     4.64     5.30     6.55
  2.96     3.10     3.27     3.42     3.51     3.55     3.50     3.40
  1.09     1.07     1.04     0.99     0.92     0.82     0.66     0.26
  0.32     0.37     0.42     0.47     0.53     0.58     0.64     0.69
  1.85     1.64     1.44     1.27     1.15     1.01     0.72     0.63
  0.73     0.90     1.13     1.43     1.66     2.18     2.74     3.60
 75.00    20.00     5.00    85.44    20.00    34.00     1.00     2.00     1.25     0.75   31.9   17.4   26.5
  0.57     0.63     0.70     0.76     0.83     0.90     0.97     1.05
  9.29    10.30    11.36    12.48    13.63    14.85    16.20    17.60
  0.16     0.19     0.25     0.36     0.47     0.63     0.87     1.16
 20.00    22.00    24.00    26.00    28.00    30.00    32.00    34.00
  3.54     3.78     3.98     4.13     4.17     4.09     3.85     3.45
  0.45     0.55     0.62     0.71     0.81     0.93     1.05     1.22
 15.32    16.27    17.00    17.38    17.25    16.53    14.60    12.00
  0.59     0.54     0.48     0.42     0.37     0.32     0.26     0.20
  4.07     4.47     4.92     5.31     5.52     5.59     5.40     4.95
  9.02     8.44     7.64     6.67     5.66     4.58     3.50     2.45
  2.03     1.62     1.25     0.90     0.59     0.36     0.17     0.05
  9.76     7.90     6.33     5.08     4.24     3.59     3.08     2.78
 14.82    12.29     9.57     6.93     4.40     2.01     0.85     0.40
  2.93     3.23     3.62     4.08     4.66     5.56     6.70     8.15
  2.79     3.06     3.34     3.60     3.74     3.75     3.68     3.30
  1.20     1.17     1.13     1.07     0.99     0.88     0.71     0.30
  0.45     0.52     0.60     0.67     0.75     0.83     0.91     0.99
  1.93     1.74     1.60     1.43     1.32     1.20     0.85     0.65
  1.08     1.30     1.61     2.02     2.60     3.40     4.35     5.30
 65.00    30.00     5.00    94.27    20.00    34.00     0.50     1.38     1.88     1.25  30.2   16.25   25.5
  0.60     0.66     0.73     0.81     0.88     0.95     1.02     1.09
  9.10    10.12    11.26    12.42    13.60    14.95    16.50    18.25
  0.16     0.22     0.28     0.38     0.54     0.74     1.03     1.35
 20.00    22.00    24.00    26.00    28.00    30.00    32.00    34.00
  3.48     3.66     3.79     3.88     3.87     3.76     3.55     3.10
  0.55     0.65     0.72     0.81     0.91     1.03     1.15     1.35
 14.54    15.41    15.97    16.17    15.88    14.63    12.27     8.90
  0.46     0.41     0.35     0.30     0.24     0.19     0.13     0.08
  4.53     4.89     5.23     5.52     5.64     5.56     5.20     4.50
  8.62     7.96     7.11     6.05     4.90     3.73     2.79     1.80
  1.81     1.38     0.99     0.63     0.35     0.15     0.04     0.01
  7.66     6.34     5.15     4.17     3.57     3.13     2.61     1.80
 17.36    14.24    11.21     8.19     5.15     2.40     0.95     0.45
  2.67     3.02     3.46     4.09     5.08     6.43     7.80    10.05
  2.61     2.97     3.28     3.51     3.64     3.64     3.45     3.10
  1.49     1.43     1.37     1.29     1.18     1.05     0.83     0.40
  0.64     0.74     0.85     0.96     1.07     1.19     1.31     1.30
  1.99     1.80     1.63     1.49     1.35     1.15     0.95     0.71
  1.73     2.10     2.62     3.33     4.15     5.32     6.51     7.76
 55.00    40.00     5.00   111.00    18.00    32.00     0.50     0.75     2.50     1.25   28.6    14.95   25.0
  0.54     0.61     0.69     0.77     0.85     0.93     1.02     1.10
  8.04     8.97    10.00    11.10    12.34    13.75    15.25    16.90
  0.13     0.17     0.23     0.32     0.45     0.64     0.90     1.18
 18.00    20.00    22.00    24.00    26.00    28.00    30.00    32.00
  3.14     3.32     3.47     3.55     3.59     3.56     3.44     3.10
  0.50     0.61     0.73     0.87     1.00     1.14     1.30     1.45
 12.89    13.68    14.43    14.91    14.94    14.47    12.68     9.75
  0.42     0.36     0.31     0.25     0.20     0.14     0.09     0.04
  4.53     4.90     5.23     5.53     5.72     5.71     5.49     4.85
  8.78     8.33     7.60     6.61     5.44     4.13     2.83     2.01
  2.03     1.57     1.11     0.70     0.36     0.15     0.04     0.01
  7.35     6.15     5.02     4.02     3.26     2.82     2.44     1.50
 21.13    17.62    14.09    10.67     7.28     3.67     1.30     0.40
  2.75     3.12     3.60     4.31     5.37     6.86     8.50    10.45
  2.24     2.69     3.10     3.36     3.52     3.58     3.57     3.40
  2.04     1.97     1.88     1.78     1.65     1.49     1.29     0.95
  0.77     0.90     1.03     1.17     1.31     1.46     1.61     1.76
  2.22     2.03     1.88     1.78     1.65     1.46     1.20     0.85
  2.50     3.00     3.60     4.30     5.07     6.04     7.05     8.30
 80.00    10.00    10.00    91.39    20.00    34.00     2.00     4.00     2.50     1.50   31.6   17.35   27.0
  0.56     0.62     0.68     0.75     0.81     0.88     0.94     1.01
  9.70    10.81    12.00    13.26    14.53    15.86    17.29    18.90
  0.17     0.21     0.26     0.33     0.45     0.64     0.88     1.20
 20.00    22.00    24.00    26.00    28.00    30.00    32.00    34.00
  3.58     3.83     4.05     4.15     4.11     3.98     3.66     3.14
  0.42     0.47     0.54     0.63     0.74     0.86     0.97     1.13
 15.54    16.44    17.08    17.32    17.30    16.19    13.97    10.76
  0.66     0.60     0.54     0.49     0.43     0.38     0.32     0.27
  3.26     3.57     3.89     4.18     4.41     4.49     4.41     4.13
  9.05     8.53     7.80     6.87     5.84     4.74     3.66     2.65
  1.89     1.52     1.17     0.87     0.60     0.39     0.22     0.10
 11.45     9.10     7.14     5.59     4.43     3.59     2.93     2.34
 10.89     9.11     7.18     5.31     3.31     1.75     0.73     0.23
  3.48     3.74     4.03     4.39     4.85     5.60     6.75     8.40
  4.51     4.66     4.83     4.94     4.99     4.98     4.92     4.81
  1.92     1.82     1.70     1.54     1.34     1.05     0.63     0.05
  0.33     0.38     0.43     0.49     0.54     0.59     0.65     0.70
  1.81     1.61     1.43     1.26     1.12     1.02     0.96     0.85
  0.78     0.98     1.25     1.63     2.20     3.01     4.11     5.33
 70.00    20.00    10.00    90.46    20.00    34.00     1.00     2.75     3.75     2.50  30.0   16.45  25.7
  0.58     0.64     0.70     0.77     0.84     0.91     0.98     1.05
  9.42    10.47    11.59    12.78    14.11    15.40    16.96    19.00
  0.17     0.22     0.30     0.41     0.56     0.77     1.01     1.30
 20.00    22.00    24.00    26.00    28.00    30.00    32.00    34.00
  3.48     3.70     3.88     3.95     3.90     3.73     3.37     2.75
  0.52     0.57     0.64     0.73     0.85     0.97     1.10     1.25
 15.03    15.87    16.39    16.44    15.89    14.22    11.80     8.30
  0.53     0.47     0.42     0.36     0.31     0.26     0.20     0.14
  4.07     4.49     4.92     5.19     5.29     5.20     4.88     4.30
  8.27     7.56     6.63     5.63     4.57     3.48     2.47     1.95
  1.71     1.32     0.96     0.64     0.39     0.18     0.05     0.01
  9.43     7.80     6.19     4.92     4.14     3.60     3.21     2.21
 13.60    11.15     8.70     6.51     4.38     2.58     0.89     0.15
  2.98     3.33     3.76     4.29     5.08     6.50     8.60    11.10
  3.64     3.92     4.19     4.37     4.41     4.36     4.17     3.70
  3.03     2.87     2.66     2.38     2.03     1.57     0.98     0.24
  0.47     0.54     0.61     0.69     0.77     0.85     0.94     1.02
  1.84     1.65     1.47     1.31     1.18     1.11     0.99     0.87
  1.23     1.53     1.99     2.63     3.30     4.31     5.40     6.66
 60.00    30.00    10.00   112.11    18.00    32.00     1.00     1.50     5.00     2.50  28.4   15.45   25.0
  0.53     0.60     0.67     0.74     0.81     0.89     0.97     1.04
  8.28     9.27    10.39    11.56    12.75    14.14    15.87    17.94
  0.13     0.17     0.23     0.32     0.46     0.65     0.90     1.20
 18.00    20.00    22.00    24.00    26.00    28.00    30.00    32.00
  3.19     3.39     3.55     3.65     3.67     3.59     3.40     3.08
  0.46     0.56     0.66     0.74     0.83     0.95     1.08     1.25
 13.32    14.25    14.96    15.30    15.20    14.21    12.04     9.28
  0.47     0.41     0.36     0.30     0.24     0.19     0.14     0.08
  4.10     4.48     4.83     5.15     5.33     5.31     5.00     4.40
  8.37     7.86     7.07     6.08     4.94     3.78     2.63     1.58
  1.93     1.49     1.08     0.70     0.40     0.17     0.06     0.00
  8.39     7.05     5.82     4.77     4.16     3.53     3.14     2.69
 19.09    15.98    12.98    10.11     7.26     4.64     2.36     0.45
  2.91     3.24     3.63     4.18     5.04     6.29     8.06    10.30
  2.49     2.86     3.20     3.46     3.62     3.65     3.58     3.32
  4.06     3.90     3.71     3.48     3.20     2.82     2.35     1.63
  0.56     0.66     0.76     0.88     0.99     1.11     1.22     1.34
  2.07     1.87     1.68     1.51     1.36     1.25     1.13     0.95
  1.65     1.96     2.42     3.07     3.74     4.83     6.07     7.47
 50.00    40.00    10.00   114.32    16.00    30.00     1.00     1.50     5.00     2.50   26.8  14.25   24.4
  0.48     0.54     0.62     0.70     0.78     0.87     0.95     1.03
  7.23     8.16     9.18    10.29    11.55    12.99    14.60    16.39
  0.12     0.15     0.19     0.27     0.38     0.55     0.78     1.05
 16.00    18.00    20.00    22.00    24.00    26.00    28.00    30.00
  2.86     3.06     3.23     3.34     3.39     3.39     3.30     3.00
  0.43     0.50     0.61     0.74     0.88     1.01     1.17     1.30
 11.77    12.59    13.36    13.99    14.20    13.93    12.46     9.80
  0.42     0.37     0.31     0.26     0.20     0.15     0.09     0.04
  4.10     4.46     4.82     5.14     5.38     5.43     5.27     4.70
  8.43     8.14     7.54     6.65     5.54     4.26     2.95     1.74
  2.16     1.70     1.24     0.80     0.44     0.19     0.05     0.01
  8.50     7.36     6.13     5.08     4.08     3.35     2.80     2.38
 22.48    18.90    15.48    12.14     8.80     5.27     2.03     0.35
  2.99     3.29     3.72     4.32     5.24     6.59     8.35    10.42
  2.66     3.13     3.56     3.90     4.08     4.17     4.19     4.05
  4.18     4.06     3.90     3.71     3.48     3.20     2.82     2.33
  0.66     0.79     0.92     1.05     1.20     1.35     1.50     1.65
  2.23     2.07     1.88     1.68     1.51     1.37     1.27     1.05
  2.30     2.73     3.31     3.94     4.87     5.93     7.42     8.71
 75.00    10.00    15.00    90.46    18.00    32.00     3.00     6.00     3.75     2.25   29.8   16.39   26.
  0.50     0.56     0.62     0.69     0.75     0.82     0.88     0.95
  8.70     9.79    10.95    12.19    13.46    14.78    16.21    17.82
  0.14     0.18     0.24     0.29     0.40     0.57     0.83     1.19
 18.00    20.00    22.00    24.00    26.00    28.00    30.00    32.00
  3.26     3.52     3.75     3.90     3.91     3.79     3.50     3.00
  0.40     0.49     0.59     0.70     0.82     0.95     1.07     1.20
 14.23    15.17    15.98    16.32    16.39    15.56    13.49    10.36
  0.64     0.59     0.53     0.48     0.42     0.37     0.31     0.26
  2.95     3.25     3.57     3.87     4.12     4.24     4.18     3.92
  8.71     8.29     7.62     6.77     5.75     4.66     3.57     2.56
  1.94     1.58     1.22     0.90     0.62     0.40     0.22     0.10
 14.47    11.64     9.21     7.20     5.61     4.45     3.59     2.93
  9.22     7.84     6.27     4.81     3.33     2.08     1.30     0.81
  4.28     4.54     4.81     5.16     5.57     6.25     7.37     8.97
  6.42     6.56     6.73     6.87     6.93     6.93     6.88     6.77
  3.10     2.94     2.75     2.47     2.12     1.66     1.06     0.29
  0.29     0.34     0.39     0.44     0.50     0.55     0.61     0.66
  2.09     1.88     1.69     1.52     1.37     1.25     1.21     1.19
  0.66     0.84     1.08     1.42     1.93     2.69     3.72     5.02
 65.00    20.00    15.00    94.27    18.00    32.00     3.00     6.00     3.75     2.25   28.2   15.6   25.
  0.52     0.58     0.64     0.71     0.78     0.85     0.92     0.99
  8.46     9.49    10.60    11.77    13.10    14.49    15.90    18.00
  0.14     0.18     0.25     0.35     0.49     0.70     0.97     1.29
 18.00    20.00    22.00    24.00    26.00    28.00    30.00    32.00
  3.18     3.41     3.60     3.72     3.70     3.56     3.20     2.55
  0.44     0.55     0.66     0.78     0.90     1.02     1.14     1.30
 13.76    14.69    15.34    15.56    15.20    13.77    11.25     8.10
  0.53     0.47     0.42     0.36     0.31     0.25     0.19     0.14
  3.67     4.06     4.52     4.85     4.99     4.94     4.60     4.10
  8.04     7.44     6.59     5.60     4.56     3.47     2.40     1.54
  1.79     1.39     1.02     0.69     0.41     0.20     0.06     0.01
 11.27     9.28     7.54     6.02     4.75     3.77     2.93     2.10
 12.05     9.76     7.35     5.19     3.25     1.63     0.90     0.40
  4.74     5.05     5.46     5.96     6.64     7.90     9.85    12.10
  6.72     7.00     7.27     7.50     7.57     7.54     7.30     6.23
  3.10     2.94     2.75     2.47     2.12     1.66     1.05     0.29
  0.41     0.48     0.55     0.63     0.71     0.79     0.88     0.93
  2.12     1.92     1.73     1.56     1.43     1.35     1.10     1.08
  1.06     1.31     1.71     2.28     3.09     4.11     5.36     6.85
 55.00    30.00    15.00   117.06    16.00    30.00     1.50     4.75     5.00     3.75   26.6    14.5  24.2
  0.47     0.54     0.61     0.68     0.75     0.83     0.90     0.98
  7.35     8.32     9.43    10.60    11.83    13.32    15.18    17.20
  0.11     0.14     0.19     0.27     0.40     0.57     0.83     1.15
 16.00    18.00    20.00    22.00    24.00    26.00    28.00    30.00
  2.91     3.12     3.30     3.42     3.48     3.42     3.26     2.95
  0.38     0.48     0.59     0.71     0.82     0.96     1.10     1.21
 12.05    13.06    13.90    14.37    14.43    13.73    11.79     9.09
  0.47     0.41     0.36     0.30     0.25     0.19     0.14     0.08
  3.68     4.07     4.43     4.76     5.01     5.04     4.79     4.24
  8.03     7.69     7.00     6.10     4.99     3.83     2.67     1.60
  2.05     1.60     1.17     0.78     0.45     0.21     0.06     0.01
  9.74     8.30     6.95     5.75     4.67     3.76     3.05     2.40
 19.69    16.55    13.51    10.68     7.90     5.26     2.94     0.55
  3.16     3.46     3.82     4.30     5.03     6.18     7.82    10.30
  5.50     5.87     6.24     6.52     6.72     6.79     6.73     6.54
  4.13     3.98     3.79     3.56     3.29     2.92     2.43     1.72
  0.48     0.58     0.68     0.79     0.90     1.02     1.14     1.26
  2.35     2.14     1.94     1.76     1.62     1.49     1.39     1.25
  1.45     1.69     2.09     2.65     3.46     4.48     5.78     7.47
 45.00    40.00    15.00   118.85    14.00    28.00     1.50     4.75     5.00     3.75  25.0   13.45  23.5
  0.42     0.48     0.55     0.63     0.71     0.79     0.87     0.96
  6.32     7.25     8.26     9.38    10.67    12.16    13.85    15.71
  0.13     0.12     0.15     0.22     0.32     0.47     0.69     1.00
 14.00    16.00    18.00    20.00    22.00    24.00    26.00    28.00
  2.56     2.80     2.98     3.12     3.19     3.21     3.14     2.96
  0.35     0.45     0.55     0.68     0.80     0.93     1.09     1.22
 10.62    11.49    12.28    13.01    13.39    13.27    12.22     9.91
  0.43     0.37     0.32     0.27     0.21     0.15     0.10     0.05
  3.69     4.03     4.40     4.73     5.01     5.14     5.04     4.60
  7.98     7.87     7.42     6.66     5.61     4.39     3.07     1.83
  2.27     1.84     1.38     0.92     0.53     0.24     0.07     0.01
  9.57     8.45     7.29     6.02     4.87     3.85     3.06     2.46
 23.54    19.84    16.30    12.92     9.67     6.23     2.93     0.35
  3.27     3.50     3.87     4.37     5.16     6.36     8.01    10.30
  5.55     6.06     6.51     6.91     7.14     7.26     7.29     7.10
  4.23     4.13     3.98     3.79     3.56     3.29     2.92     2.43
  0.55     0.68     0.81     0.94     1.08     1.23     1.38     1.53
  2.50     2.30     2.10     1.90     1.74     1.57     1.43     1.20
  2.02     2.34     2.85     3.53     4.34     5.46     6.84     8.38
